<svg width="48" height="48" viewBox="0 0 48 48" fill="none" xmlns="http://www.w3.org/2000/svg">
<path d="M24.075 14.7C18.975 14.7 14.775 18.9 14.775 24C14.775 29.175 18.975 33.3 24.075 33.3C29.175 33.3 33.375 29.175 33.375 24C33.375 18.9 29.175 14.7 24.075 14.7ZM24.075 30C20.775 30 18.15 27.3 18.15 24.075C18.15 20.775 20.775 18.15 24.075 18.15C27.375 18.15 30 20.775 30 24C30 27.3 27.3 30 24.075 30Z" fill="#111928"/>
<path d="M45.525 28.575L41.325 26.25C41.475 25.425 41.55 24.6 41.55 23.775C41.55 22.875 41.475 22.05 41.4 21.225L45.675 18.825C46.65 18.3 47.025 17.1 46.575 16.05L42.225 8.70002C41.7 7.80002 40.5 7.42502 39.525 7.80002L35.025 10.275C34.8 10.125 34.575 9.90002 34.425 9.75002C33.6 9.07502 32.85 8.40002 31.65 7.80002C31.575 7.80002 31.5 7.72502 31.5 7.57502V4.87502C31.5 2.92502 29.925 1.27502 27.9 1.27502H20.175C18.225 1.27502 16.575 2.92502 16.575 4.87502V7.80002C16.575 7.87502 16.5 7.95002 16.425 8.02502C15.3 8.55002 14.475 9.30002 13.575 9.97503C13.425 10.125 13.2 10.275 13.05 10.425L9.07503 8.17502C7.57503 7.35002 6.30003 7.87502 5.77503 8.77502L1.65003 15.9C1.42503 16.5 1.35003 17.1 1.50003 17.7C1.65003 18.3 2.02503 18.75 2.55003 19.05L6.75003 21.3C6.60003 22.05 6.60003 22.875 6.60003 23.85C6.60003 24.675 6.67503 25.5 6.75003 26.325L2.40003 28.725C1.42503 29.25 1.05003 30.45 1.50003 31.5L5.85003 38.85C6.37503 39.75 7.50003 40.125 8.55003 39.75L13.05 37.275C13.275 37.425 13.425 37.575 13.65 37.8C14.475 38.55 15.3 39.225 16.5 39.75C16.575 39.75 16.65 39.825 16.65 39.975V43.2C16.65 45.15 18.225 46.8 20.25 46.8H27.9C29.85 46.8 31.5 45.15 31.5 43.2V39.75C31.5 39.675 31.575 39.6 31.65 39.525C32.775 39 33.525 38.325 34.425 37.575C34.65 37.425 34.8 37.275 35.025 37.05L39 39.3C40.5 40.125 41.7 39.6 42.3 38.7L46.5 31.575C46.8 31.05 46.875 30.45 46.725 29.925C46.575 29.4 46.05 28.875 45.525 28.575ZM39.825 36L36.225 33.975C35.175 33.375 33.975 33.525 33.075 34.275C32.7 34.575 32.4 34.8 32.1 35.1C31.35 35.775 30.825 36.225 30.075 36.525C28.875 37.125 28.05 38.4 28.05 39.75V43.05C28.05 43.2 27.975 43.275 27.825 43.275H20.175C20.025 43.275 19.95 43.2 19.95 43.05V39.825C19.95 38.475 19.125 37.2 17.925 36.6C17.175 36.225 16.575 35.775 15.825 35.1C15.525 34.875 15.225 34.575 14.85 34.35C14.325 33.975 13.725 33.75 13.05 33.75C12.6 33.75 12.075 33.9 11.625 34.125L8.02503 36.15L5.02503 31.05L8.55003 29.1C9.60003 28.5 10.2 27.375 10.05 26.1C9.97503 25.35 9.90003 24.6 9.90003 23.85C9.90003 23.025 9.97503 22.275 10.05 21.675C10.275 20.4 9.67503 19.125 8.55003 18.525L5.25003 16.65L8.17503 11.625L11.775 13.65C12.825 14.25 14.025 14.1 14.925 13.35C15.225 13.125 15.525 12.825 15.825 12.6C16.575 11.925 17.175 11.475 17.925 11.1C19.2 10.5 19.95 9.22502 19.95 7.87502V4.95002C19.95 4.80002 20.025 4.72502 20.175 4.72502H27.825C27.975 4.72502 28.05 4.80002 28.05 4.95002V7.80002C28.05 9.15002 28.875 10.425 30.075 11.025C30.825 11.4 31.35 11.85 32.1 12.45C32.4 12.75 32.7 12.975 33.075 13.275C33.975 14.025 35.25 14.1 36.225 13.5L39.825 11.475L42.825 16.575L39.375 18.525C38.325 19.125 37.725 20.4 37.95 21.675C38.025 22.35 38.1 23.1 38.1 23.85C38.1 24.6 38.025 25.35 37.875 26.1C37.65 27.375 38.25 28.575 39.375 29.175L42.75 31.05L39.825 36Z" fill="#111928"/>
</svg>
